{
  "page": 1,
  "total_results": 10000,
  "total_pages": 500,
  "results": [
    {
      "popularity": 0.6,
      "vote_count": 1,
      "video": false,
      "poster_path": "/t3xrXpmf7j7jlnCnH4t0vZxMLxU.jpg",
      "id": 704348,
      "adult": false,
      "backdrop_path": "/xeLHkHhAE68RtDf3G8QEr70rjkT.jpg",
      "original_language": "en",
      "original_title": "Agents of Secret Stuff",
      "genre_ids": [
        28,
        35
      ],
      "title": "Agents of Secret Stuff",
      "vote_average": 10,
      "overview": "A teenage spy is assigned on a mission to attend a high school to protect a schoolgirl who is targeted by an enemy organization but struggles to fit in with the normal life.",
      "release_date": "2010-11-24"
    },
    {
      "popularity": 0.6,
      "vote_count": 1,
      "video": false,
      "poster_path": "/6KNV7Idap9L7gxEKg0qACoqtWRm.jpg",
      "id": 699928,
      "adult": false,
      "backdrop_path": "/dJyRaANajlhdexTkUdeizi8NKVI.jpg",
      "original_language": "en",
      "original_title": "U2360° At the Rose Bowl",
      "genre_ids": [
        10402
      ],
      "title": "U2360° At the Rose Bowl",
      "vote_average": 10,
      "overview": "U2's 360° concert at the famous Pasadena Rose Bowl was U2's biggest ever show in the United States with a box office attendance in excess of 97,000.  The first live streaming of a full-length stadium concert, U2360° at the Rose Bowl streamed across seven continents, making history with over 10 million views in one week. Shot entirely in HD, this ground breaking concert was filmed with 28 cameras and directed by Tom Krueger who previously shot the concert film U23D. U2360° resumes in Europe in August with North American dates to follow in 2011.",
      "release_date": "2010-06-03"
    },
    {
      "popularity": 0.6,
      "vote_count": 1,
      "video": false,
      "poster_path": null,
      "id": 697694,
      "adult": false,
      "backdrop_path": null,
      "original_language": "en",
      "original_title": "What We Leave in Our Wake.",
      "genre_ids": [
        99
      ],
      "title": "What We Leave in Our Wake.",
      "vote_average": 10,
      "overview": "What We Leave in Our Wake is a filmic essay which unfolds as a series of conversations on Ireland, exploring themes such as emigration, mythology, consumerism, socialism, the place of the church in Irish life, the central role of land in Irish history and the sense of a civic society. Combining images of contemporary Ireland with an evocative blend of archive, What We Leave in Our Wake questions what persists rather than the temporary fluctuations and trends, and talks to some of those uniquely placed to comment on how this country has evolved.",
      "release_date": "2010-11-14"
    },
    {
      "popularity": 1.222,
      "vote_count": 1,
      "video": false,
      "poster_path": "/9jhmMVC6i2gjujdlm3iBZTXiSDP.jpg",
      "id": 691631,
      "adult": false,
      "backdrop_path": "/zdxjgWcdyInuFV1gxmukI8Bnn8p.jpg",
      "original_language": "en",
      "original_title": "Scooby-Doo! Mystery Incorporated",
      "genre_ids": [],
      "title": "Scooby-Doo! Mystery Incorporated",
      "vote_average": 10,
      "overview": "Scooby-Doo and the gang attempt to solve creepy mysteries in the town of Crystal Cove, a place with a history of eerie supernatural events.",
      "release_date": "2010-04-05"
    },
    {
      "popularity": 0.6,
      "vote_count": 1,
      "video": false,
      "poster_path": "/6ux3iecXA8tWh48cVHm3X1hVu47.jpg",
      "id": 660746,
      "adult": false,
      "backdrop_path": null,
      "original_language": "fr",
      "original_title": "The Trashmaster",
      "genre_ids": [
        28,
        16
      ],
      "title": "The Trashmaster",
      "vote_average": 10,
      "overview": "A vigilante dustman attempts to track down a serial killer responsible for the deaths of the dancers at a local strip club.",
      "release_date": "2010-12-21"
    },
    {
      "popularity": 0.676,
      "id": 656424,
      "video": false,
      "vote_count": 1,
      "vote_average": 10,
      "title": "18+ : True Love Never Dies",
      "release_date": "2010-01-26",
      "original_language": "id",
      "original_title": "18+ : True Love Never Dies",
      "genre_ids": [
        18
      ],
      "backdrop_path": null,
      "adult": false,
      "overview": "Topan and Raka are best friends. Topan’s girlfriend, Chanisa, is suffering from lung cancer. Meanwhile, Raka keeps asking Chanisa’s best friend, Helen, to be his girlfriend. In addition, Topan is still disturbed by his former girlfriend, Nayla. At home, Topan’s mother, Retno, who masturbates frequently for her husband, Hilman, is always busy leaving Topan neglected. Later, Topan finds out that Hilman is dating one of his boyfriends. Retno actually knows about this but she prefers to stay silent.",
      "poster_path": "/8W8QDGrqeq8577Q74mcsPbGhN6K.jpg"
    },
    {
      "popularity": 0.6,
      "vote_count": 1,
      "video": false,
      "poster_path": "/5Cdck0N9wyTOzQA7Gd6XBQ1CFe8.jpg",
      "id": 628443,
      "adult": false,
      "backdrop_path": null,
      "original_language": "ja",
      "original_title": "劇場版3D あたしンち 情熱のちょ～超能力♪母大暴走!",
      "genre_ids": [
        16,
        35
      ],
      "title": "Atashin'chi: The 3D Movie",
      "vote_average": 10,
      "overview": "Mother is having a very lucky day but gets struck by lightening on her way home from shopping. From it she gains telekinesis and uses it to level up her housewife skills. Eventually she branches out into being a vigilante when her family gets tired of her powers. But while fulfilling her desire to be a cool super powered woman, she neglects her family duties. During a fight she accidentally hurts Mikan and starts to have a break down, which puts her powers out of control and threatens the safety of everyone in the whole apartment building.",
      "release_date": "2010-11-13"
    },
    {
      "popularity": 0.6,
      "vote_count": 1,
      "video": false,
      "poster_path": null,
      "id": 626770,
      "adult": false,
      "backdrop_path": null,
      "original_language": "pa",
      "original_title": "Ilyasa Gujjar",
      "genre_ids": [
        28
      ],
      "title": "Ilyasa Gujjar",
      "vote_average": 10,
      "overview": "",
      "release_date": "2010-11-17"
    },
    {
      "popularity": 0.6,
      "vote_count": 1,
      "video": false,
      "poster_path": null,
      "id": 626768,
      "adult": false,
      "backdrop_path": null,
      "original_language": "pa",
      "original_title": "Numberdarni",
      "genre_ids": [
        28
      ],
      "title": "Numberdarni",
      "vote_average": 10,
      "overview": "",
      "release_date": "2010-11-17"
    },
    {
      "popularity": 0.6,
      "vote_count": 1,
      "video": false,
      "poster_path": null,
      "id": 626764,
      "adult": false,
      "backdrop_path": null,
      "original_language": "ur",
      "original_title": "Phool Aur Kantay",
      "genre_ids": [
        28,
        10752
      ],
      "title": "Phool Aur Kantay",
      "vote_average": 10,
      "overview": "",
      "release_date": "2010-10-22"
    },
    {
      "popularity": 0.6,
      "vote_count": 1,
      "video": false,
      "poster_path": null,
      "id": 626761,
      "adult": false,
      "backdrop_path": null,
      "original_language": "pa",
      "original_title": "Lado Rani",
      "genre_ids": [
        28,
        10749
      ],
      "title": "Lado Rani",
      "vote_average": 10,
      "overview": "",
      "release_date": "2010-09-28"
    },
    {
      "popularity": 0.6,
      "vote_count": 1,
      "video": false,
      "poster_path": null,
      "id": 626435,
      "adult": false,
      "backdrop_path": null,
      "original_language": "pa",
      "original_title": "Taxi 707",
      "genre_ids": [
        10749
      ],
      "title": "Taxi 707",
      "vote_average": 10,
      "overview": "",
      "release_date": "2010-09-11"
    },
    {
      "popularity": 0.6,
      "id": 626429,
      "video": false,
      "vote_count": 1,
      "vote_average": 10,
      "title": "Wohti Le Kay Jani Aay",
      "release_date": "2010-11-11",
      "original_language": "pa",
      "original_title": "ووہٹی لے کے جانی ے",
      "genre_ids": [
        35,
        10749
      ],
      "backdrop_path": null,
      "adult": false,
      "overview": "A village musician falls in love with a girl from an upper caste.",
      "poster_path": "/iMv6MpvA5OyFEmQq32spkNEthCg.jpg"
    },
    {
      "popularity": 0.6,
      "vote_count": 1,
      "video": false,
      "poster_path": null,
      "id": 626428,
      "adult": false,
      "backdrop_path": null,
      "original_language": "ur",
      "original_title": "Haseeno Ka Mela",
      "genre_ids": [
        35,
        10749
      ],
      "title": "Haseeno Ka Mela",
      "vote_average": 10,
      "overview": "",
      "release_date": "2010-09-11"
    },
    {
      "popularity": 0.6,
      "vote_count": 1,
      "video": false,
      "poster_path": null,
      "id": 625447,
      "adult": false,
      "backdrop_path": null,
      "original_language": "pa",
      "original_title": "Haseena 20/20",
      "genre_ids": [
        10749
      ],
      "title": "Haseena 20/20",
      "vote_average": 10,
      "overview": "",
      "release_date": "2010-06-25"
    },
    {
      "popularity": 0.6,
      "id": 625445,
      "video": false,
      "vote_count": 1,
      "vote_average": 10,
      "title": "Channa Sachi Muchi",
      "release_date": "2010-06-25",
      "original_language": "pa",
      "original_title": "Channa Sachi Muchi",
      "genre_ids": [
        10749
      ],
      "backdrop_path": null,
      "adult": false,
      "overview": "Pooja, a Hindu, and Bao, a Muslim are in love. Bao succeeds in winning Pooja’s. However Sooria, who is Pooja fiancé, is also in love with her. Similarly, Lajo, who is engaged to Bao, is waiting for the love of her life.",
      "poster_path": "/trvGf2sxhqhXpcRGGdPQFBuImlz.jpg"
    },
    {
      "popularity": 0.6,
      "id": 607701,
      "video": false,
      "vote_count": 1,
      "vote_average": 10,
      "title": "Shadi Aur Tum Say?",
      "release_date": "2010-02-01",
      "original_language": "ur",
      "original_title": "Shadi Aur Tum Say?",
      "genre_ids": [
        35,
        10770
      ],
      "backdrop_path": null,
      "adult": false,
      "overview": "Sami and Laila are cousins who unwillingly get tangled in an arranged marriage - on their families persistence. Laila knows about Sami being in love with another girl called Samawi, but she is totally cool with it. The only thing she worries about is her financier running away if she lets go of the chance to make a movie this time. She - along with Sami - devises a plan to do everything possible to somehow make Sami's parents hate her.",
      "poster_path": null
    },
    {
      "popularity": 0.6,
      "id": 602968,
      "video": false,
      "vote_count": 1,
      "vote_average": 10,
      "title": "Fairview St.",
      "release_date": "2010-02-18",
      "original_language": "en",
      "original_title": "Fairview St.",
      "genre_ids": [
        18,
        80,
        18
      ],
      "backdrop_path": null,
      "adult": false,
      "overview": "Paroled after serving four years in prison for armed robbery, James Winton returns home to his wife and father to make amends. However, when James is implicated in the recent murders of old acquaintances, the police detective who put him away last time is determined to make him pay at any cost.",
      "poster_path": "/tM1C1onYEdVXH2EHQ7hUvFfJdIT.jpg"
    },
    {
      "popularity": 0.6,
      "id": 593299,
      "video": false,
      "vote_count": 1,
      "vote_average": 10,
      "title": "The Mystery of the Nevada Triangle",
      "release_date": "2010-04-01",
      "original_language": "en",
      "original_title": "The Mystery of the Nevada Triangle",
      "genre_ids": [
        99
      ],
      "backdrop_path": "/ySXomIdVwIO35rYCYMr1fpnh0n3.jpg",
      "adult": false,
      "overview": "A look at disapearing planes",
      "poster_path": null
    },
    {
      "popularity": 0.6,
      "vote_count": 1,
      "video": false,
      "poster_path": "/8iZQgNm7qdccAMUKZQnHnZaXh36.jpg",
      "id": 591561,
      "adult": false,
      "backdrop_path": null,
      "original_language": "it",
      "original_title": "Linea Continua",
      "genre_ids": [
        12,
        99
      ],
      "title": "Linea Continua",
      "vote_average": 10,
      "overview": "",
      "release_date": "2010-07-01"
    }
  ]
}